IP,RSA expire date,Days to expire,RSA Valid,GOST expire date,Days to expire,RSA Valid

10.6.74.202,2022-12-28,251,valid,2023-03-28,341,valid
10.6.74.170,2022-09-06,137,valid,2022-11-10,202,valid
10.6.74.178,2022-11-26,218,valid,2023-02-26,310,valid
10.6.74.206,2022-11-26,218,valid,2023-02-26,310,valid
10.6.74.214,timeout,timeout,timeout,timeout,timeout,timeout
-,timeout,timeout,timeout,timeout,timeout,timeout
10.6.74.142,2022-12-22,244,valid,2023-03-22,334,valid
10.6.74.166,2022-09-25,156,valid,2022-12-24,246,valid
10.6.74.242,2022-12-29,251,valid,2023-03-29,341,valid
10.6.74.118,2023-02-16,300,valid,2022-05-24,32,valid
10.6.74.94,2023-01-27,280,valid,2022-06-30,69,valid
10.6.74.74,2022-05-18,26,valid,2022-11-13,205,valid
zellog33.vpn.mgn.ru,timeout,timeout,timeout,timeout,timeout,timeout
10.6.74.86,2022-12-29,251,valid,2023-03-29,341,valid
10.6.74.102,2022-12-29,251,valid,2023-03-29,341,valid
10.6.74.246,2022-10-26,187,valid,2023-01-26,279,valid
10.6.74.194,2022-12-13,235,valid,2022-07-29,98,valid
10.6.74.134,2022-12-28,251,valid,2023-03-28,341,valid
10.6.74.186,2022-09-17,148,valid,2022-12-17,239,valid
10.6.74.150,2022-12-28,250,valid,2023-03-28,340,valid
10.6.74.122,2022-07-22,92,valid,2022-10-14,175,valid
10.6.74.82,2022-06-25,64,valid,2022-09-25,156,valid
10.6.74.66,2022-10-22,183,valid,2023-01-22,275,valid
10.6.74.162,2022-06-25,64,valid,2022-09-25,156,valid
10.6.74.90,2022-12-29,251,valid,2023-03-29,341,valid
10.6.74.182,2022-05-23,31,valid,2022-11-20,212,valid
10.6.74.154,2022-12-17,239,valid,2022-11-23,215,valid
10.6.74.146,2023-01-02,255,valid,2022-06-03,42,valid
10.6.74.174,2022-10-15,176,valid,2023-01-15,268,valid
10.6.74.198,2022-09-24,155,valid,2022-12-24,246,valid
10.6.74.130,2022-11-26,218,valid,2023-02-26,310,valid
10.6.74.138,2022-12-20,243,valid,2023-03-28,341,valid
10.6.74.234,2022-12-29,251,valid,2023-03-29,341,valid
10.6.74.78,2022-05-18,26,valid,2022-08-18,118,valid
10.6.74.126,2022-12-28,251,valid,2023-03-28,341,valid
10.6.74.210,2022-04-28,7,valid,2022-10-05,166,valid
10.6.74.50,2022-07-07,76,valid,2022-07-28,97,valid
10.6.74.46,2022-11-16,208,valid,2022-12-10,232,valid
10.6.74.42,2022-10-27,188,valid,2022-12-24,246,valid
10.6.74.38,2022-11-11,204,valid,2023-01-25,278,valid
